<?xml version="1.0" encoding="UTF-8"?>
<CustomTab xmlns="http://soap.sforce.com/2006/04/metadata">
    <label>Org Chart</label>
    <mobileReady>true</mobileReady>
    <motif>Custom108: TV Widescreen</motif>
    <page>Worker_Hierarchy</page>
</CustomTab>
