<?xml version="1.0" encoding="UTF-8"?>
<CustomTab xmlns="http://soap.sforce.com/2006/04/metadata">
    <label>Performance Assignment</label>
    <mobileReady>false</mobileReady>
    <motif>Custom108: TV Widescreen</motif>
    <page>NewPerformanceForAllUsers</page>
</CustomTab>
